PING google.com (74.125.229.192) 56(84) bytes of data.
64 bytes from mia04s05-in-f0.1e100.net (74.125.229.192): icmp_req=1 ttl=52 time=210 ms
64 bytes from mia04s05-in-f0.1e100.net (74.125.229.192): icmp_req=2 ttl=52 time=171 ms
64 bytes from mia04s05-in-f0.1e100.net (74.125.229.192): icmp_req=3 ttl=52 time=207 ms
64 bytes from mia04s05-in-f0.1e100.net (74.125.229.192): icmp_req=4 ttl=52 time=152 ms
64 bytes from mia04s05-in-f0.1e100.net (74.125.229.192): icmp_req=5 ttl=52 time=206 ms
64 bytes from mia04s05-in-f0.1e100.net (74.125.229.192): icmp_req=6 ttl=52 time=190 ms
64 bytes from mia04s05-in-f0.1e100.net (74.125.229.192): icmp_req=7 ttl=52 time=184 ms
64 bytes from mia04s05-in-f0.1e100.net (74.125.229.192): icmp_req=8 ttl=52 time=198 ms
64 bytes from mia04s05-in-f0.1e100.net (74.125.229.192): icmp_req=9 ttl=52 time=215 ms
64 bytes from mia04s05-in-f0.1e100.net (74.125.229.192): icmp_req=10 ttl=52 time=268 ms
64 bytes from mia04s05-in-f0.1e100.net (74.125.229.192): icmp_req=11 ttl=52 time=273 ms
64 bytes from mia04s05-in-f0.1e100.net (74.125.229.192): icmp_req=12 ttl=52 time=196 ms
64 bytes from mia04s05-in-f0.1e100.net (74.125.229.192): icmp_req=13 ttl=52 time=172 ms
64 bytes from mia04s05-in-f0.1e100.net (74.125.229.192): icmp_req=14 ttl=52 time=190 ms
64 bytes from mia04s05-in-f0.1e100.net (74.125.229.192): icmp_req=15 ttl=52 time=170 ms
64 bytes from mia04s05-in-f0.1e100.net (74.125.229.192): icmp_req=16 ttl=52 time=209 ms
64 bytes from mia04s05-in-f0.1e100.net (74.125.229.192): icmp_req=17 ttl=52 time=170 ms
64 bytes from mia04s05-in-f0.1e100.net (74.125.229.192): icmp_req=18 ttl=52 time=181 ms
64 bytes from mia04s05-in-f0.1e100.net (74.125.229.192): icmp_req=19 ttl=52 time=193 ms
64 bytes from mia04s05-in-f0.1e100.net (74.125.229.192): icmp_req=20 ttl=52 time=179 ms
64 bytes from mia04s05-in-f0.1e100.net (74.125.229.192): icmp_req=21 ttl=52 time=191 ms
64 bytes from mia04s05-in-f0.1e100.net (74.125.229.192): icmp_req=22 ttl=52 time=203 ms
64 bytes from mia04s05-in-f0.1e100.net (74.125.229.192): icmp_req=23 ttl=52 time=216 ms
64 bytes from mia04s05-in-f0.1e100.net (74.125.229.192): icmp_req=24 ttl=52 time=179 ms
64 bytes from mia04s05-in-f0.1e100.net (74.125.229.192): icmp_req=25 ttl=52 time=215 ms
64 bytes from mia04s05-in-f0.1e100.net (74.125.229.192): icmp_req=26 ttl=52 time=199 ms
64 bytes from mia04s05-in-f0.1e100.net (74.125.229.192): icmp_req=27 ttl=52 time=211 ms
64 bytes from mia04s05-in-f0.1e100.net (74.125.229.192): icmp_req=28 ttl=52 time=170 ms
64 bytes from mia04s05-in-f0.1e100.net (74.125.229.192): icmp_req=29 ttl=52 time=183 ms
64 bytes from mia04s05-in-f0.1e100.net (74.125.229.192): icmp_req=30 ttl=52 time=167 ms

--- google.com ping statistics ---
30 packets transmitted, 30 received, 0% packet loss, time 29028ms
rtt min/avg/max/mdev = 152.270/195.932/273.378/26.049 ms
