PING google.com (173.194.37.104) 56(84) bytes of data.
64 bytes from mia05s17-in-f8.1e100.net (173.194.37.104): icmp_req=1 ttl=51 time=349 ms
64 bytes from mia05s17-in-f8.1e100.net (173.194.37.104): icmp_req=2 ttl=51 time=338 ms
64 bytes from mia05s17-in-f8.1e100.net (173.194.37.104): icmp_req=3 ttl=51 time=332 ms
64 bytes from mia05s17-in-f8.1e100.net (173.194.37.104): icmp_req=4 ttl=51 time=343 ms
64 bytes from mia05s17-in-f8.1e100.net (173.194.37.104): icmp_req=5 ttl=51 time=335 ms
64 bytes from mia05s17-in-f8.1e100.net (173.194.37.104): icmp_req=6 ttl=51 time=321 ms
64 bytes from mia05s17-in-f8.1e100.net (173.194.37.104): icmp_req=7 ttl=51 time=341 ms
64 bytes from mia05s17-in-f8.1e100.net (173.194.37.104): icmp_req=8 ttl=51 time=347 ms
64 bytes from mia05s17-in-f8.1e100.net (173.194.37.104): icmp_req=11 ttl=51 time=345 ms
64 bytes from mia05s17-in-f8.1e100.net (173.194.37.104): icmp_req=12 ttl=51 time=330 ms
64 bytes from mia05s17-in-f8.1e100.net (173.194.37.104): icmp_req=14 ttl=51 time=346 ms
64 bytes from mia05s17-in-f8.1e100.net (173.194.37.104): icmp_req=15 ttl=51 time=337 ms
64 bytes from mia05s17-in-f8.1e100.net (173.194.37.104): icmp_req=16 ttl=51 time=310 ms
64 bytes from mia05s17-in-f8.1e100.net (173.194.37.104): icmp_req=17 ttl=51 time=342 ms
64 bytes from mia05s17-in-f8.1e100.net (173.194.37.104): icmp_req=19 ttl=51 time=374 ms
64 bytes from mia05s17-in-f8.1e100.net (173.194.37.104): icmp_req=21 ttl=51 time=342 ms
64 bytes from mia05s17-in-f8.1e100.net (173.194.37.104): icmp_req=22 ttl=51 time=336 ms
64 bytes from mia05s17-in-f8.1e100.net (173.194.37.104): icmp_req=23 ttl=51 time=332 ms
64 bytes from mia05s17-in-f8.1e100.net (173.194.37.104): icmp_req=24 ttl=51 time=322 ms
64 bytes from mia05s17-in-f8.1e100.net (173.194.37.104): icmp_req=25 ttl=51 time=334 ms
64 bytes from mia05s17-in-f8.1e100.net (173.194.37.104): icmp_req=26 ttl=51 time=333 ms
64 bytes from mia05s17-in-f8.1e100.net (173.194.37.104): icmp_req=27 ttl=51 time=335 ms
64 bytes from mia05s17-in-f8.1e100.net (173.194.37.104): icmp_req=28 ttl=51 time=332 ms
64 bytes from mia05s17-in-f8.1e100.net (173.194.37.104): icmp_req=29 ttl=51 time=314 ms
64 bytes from mia05s17-in-f8.1e100.net (173.194.37.104): icmp_req=30 ttl=51 time=351 ms

--- google.com ping statistics ---
30 packets transmitted, 25 received, 16% packet loss, time 29045ms
rtt min/avg/max/mdev = 310.869/337.306/374.570/12.524 ms
